<?xml version="1.0" encoding="utf-8"?>
<!-- Generator: Adobe Illustrator 15.0.0, SVG Export Plug-In . SVG Version: 6.00 Build 0)  -->
<!DOCTYPE svg PUBLIC "-//W3C//DTD SVG 1.1//EN" "http://www.w3.org/Graphics/SVG/1.1/DTD/svg11.dtd">
<svg version="1.1" id="Layer_2" xmlns="http://www.w3.org/2000/svg" xmlns:xlink="http://www.w3.org/1999/xlink" x="0px" y="0px"
	 width="512px" height="512px" viewBox="0 0 512 512" enable-background="new 0 0 512 512" xml:space="preserve">
<g>
	<path fill="#BC202E" d="M224.077,250.212H110.819c-12.845,0-23.301-10.425-23.301-23.239v-113.29
		c0-12.806,10.456-23.222,23.301-23.222h113.258c12.854,0,23.27,10.417,23.27,23.222v113.29
		C247.347,239.787,236.931,250.212,224.077,250.212z M110.819,104.581c-5.037,0-9.108,4.102-9.108,9.103v113.29
		c0,5.011,4.072,9.119,9.108,9.119h113.258c5.004,0,9.119-4.107,9.119-9.119v-113.29c0-5.001-4.115-9.103-9.119-9.103H110.819z"/>
	<path fill="#BC202E" d="M402.102,250.212H288.812c-12.816,0-23.269-10.425-23.269-23.239v-113.29
		c0-12.806,10.452-23.222,23.269-23.222h113.289c12.814,0,23.229,10.417,23.229,23.222v113.29
		C425.33,239.787,414.916,250.212,402.102,250.212z M288.812,104.581c-5.048,0-9.119,4.102-9.119,9.103v113.29
		c0,5.011,4.071,9.119,9.119,9.119h113.289c5.001,0,9.115-4.107,9.115-9.119v-113.29c0-5.001-4.114-9.103-9.115-9.103H288.812z"/>
	<path fill="#BC202E" d="M224.077,422.516H110.819c-12.845,0-23.301-10.42-23.301-23.236V285.998
		c0-12.817,10.456-23.234,23.301-23.234h113.258c12.854,0,23.27,10.417,23.27,23.234v113.281
		C247.347,412.096,236.931,422.516,224.077,422.516z M110.819,276.878c-5.037,0-9.108,4.109-9.108,9.12v113.281
		c0,5.009,4.072,9.119,9.108,9.119h113.258c5.004,0,9.119-4.11,9.119-9.119V285.998c0-5.011-4.115-9.12-9.119-9.12H110.819z"/>
	<path fill="#BC202E" d="M402.102,422.516H288.812c-12.816,0-23.269-10.42-23.269-23.236V285.998
		c0-12.817,10.452-23.234,23.269-23.234h113.289c12.814,0,23.229,10.417,23.229,23.234v113.281
		C425.33,412.096,414.916,422.516,402.102,422.516z M288.812,276.878c-5.048,0-9.119,4.109-9.119,9.12v113.281
		c0,5.009,4.071,9.119,9.119,9.119h113.289c5.001,0,9.115-4.11,9.115-9.119V285.998c0-5.011-4.114-9.12-9.115-9.12H288.812z"/>
</g>
</svg>
